                     DATE  05-Oct-2017  TIME  15:10:06

                                         MEMBER FORCES AND MOMENTS REPORT                                         

                                        **************** kN ****************      *************** kN-m ***************
  MEMBER      MEMBER  GROUP   LOAD      FORCE(X)      FORCE(Y)      FORCE(Z)      MOMENT(X)     MOMENT(Y)     MOMENT(Z)
  NUMBER      END      ID     COND
 ---------    ----    ----    ----      --------      --------      --------      --------      --------      -------- 
 SADP-5240    SADP     AD4      AX   -11771.6377      467.8983       -9.6414        3.0504       38.8341    -2058.1665
                                AY     6653.3086        0.3234      243.4441       48.7468    -1178.3005       -5.1257
                                AZ    -2168.4492     -186.2302        5.7168       -3.6621      -20.4896      817.5861
                                RX    -6975.7212      -23.4294       21.5290      -59.9805       32.7362      107.7579
                                RY   -12625.3115       58.7595       -7.2759        2.3286       29.5492     -303.5936
                                RZ     -921.2621      -58.2444      -99.3361      -16.1804      453.7821      257.3843
              5240              AX   -11748.7910      525.4674       -9.6414        3.0504       -1.6515       27.4725
                                AY     6653.3086        0.3233      305.3813       48.7468      -26.0041       -3.7679
                                AZ    -2110.8799     -209.0779        5.7168       -3.6621        3.5162      -12.3902
                                RX    -6968.5703      -26.2676      -14.7362      -59.9805       48.5036        3.4157
                                RY   -12598.2412       87.0323       -7.2758        2.3286       -1.0030        0.8865
                                RZ     -924.1003      -65.3959     -114.0690      -16.1804        5.1261       -2.2070

 SADS-5110    SADS     AD4      AX   -13808.4092     -467.7352       27.7442       15.4668      -99.2644     2058.7095
                                AY    -6653.3320        0.3497     -229.0029       50.8716     1120.9012       -4.2574
                                AZ    -2289.4346      186.2567       -1.5744        0.0480        6.9700     -816.9992
                                RX     7037.2241      -23.4658      -32.7055      -60.6542       12.4185      106.7048
                                RY   -14788.8506      -58.5856       27.2200       14.7812      -98.0370      304.1901
                                RZ      905.2519      -58.2497       96.0258      -16.2594     -440.2754      257.1725
              5110              AX   -13785.5615     -525.3043       27.7442       15.4668       17.2372      -26.2446
                                AY    -6653.3320        0.3497     -290.9402       50.8716       29.2452       -2.7889
                                AZ    -2231.8657      209.1044       -1.5744        0.0480        0.3587       13.0883
                                RX     7030.0728      -26.3040        3.5598      -60.6542      -50.2804        2.2098
                                RY   -14761.7783      -86.8584       27.2200       14.7812       16.2635        0.4401
                                RZ      908.0901      -65.4011      110.7587      -16.2594       -5.5197       -2.4408

 SHZ3-WT18    SHZ3     HZ3      AX      -17.2907       -0.0850       -4.2488        6.9381        1.4935       -7.0453
                                AY      951.4069       -4.6941        0.7596       -3.1405       -8.9825       15.8222
                                AZ      -50.8751       -1.7514       -2.6265       -0.0125       -0.2143       -2.3227
                                RX    -1460.0092        7.1816       -1.1833        4.9029       13.3310      -24.0231
                                RY      -42.3792       -2.4367       -7.7335        7.8765        2.6408       -6.4649
                                RZ     -349.0332        0.8241       -0.2788        0.5617        3.4025       -2.9685
              WT18              AX      -17.6853        3.6145       -4.7008        6.9381      -12.1057       -1.6821
                                AY      948.5815       -4.6946        3.2221       -3.1405       -2.9322        1.5557
                                AZ      -48.4444       -1.1514        0.1624       -0.0125       -3.9585       -6.7336
                                RX    -1456.2112        7.1946       -4.3927        4.9029        4.9088       -2.1719
                                RY      -42.0733        2.6757       -7.3814        7.8765      -20.3268       -6.1354
                                RZ     -348.0610        0.7482       -1.1098        0.5617        1.3007       -0.6176

 2140-WT2K    2140     PIV      AX     7551.7065     1025.2748    -2561.0942       -7.1245       16.0149        7.4060
                                AY   -26066.6074   -13224.3701      -76.9345       55.1778       30.4465      -39.0260
                                AZ    -5051.7007     -820.0238     -545.4574        3.5748       10.9916       -3.6426
                                RX    23276.2285     6593.9326    -1203.2269      -53.8658      -14.9576       29.9620
                                RY     6688.5850      935.3270     1086.5770       -2.3288      -18.0532        5.1229
                                RZ     5965.5273     1451.8517     -623.6486      -15.2203       -0.8043        7.5528
              WT2K              AX     7551.7065     1025.2748    -2561.0942       -7.1245        2.9559       12.6339
                                AY   -26066.6074   -13224.3701      -76.9345       55.1778       30.0542     -106.4571
                                AZ    -5051.7007     -820.0238     -545.4574        3.5748        8.2103       -7.8239
                                RX    23276.2285     6593.9326    -1203.2269      -53.8658      -21.0929       63.5845
                                RY     6688.5850      935.3270     1086.5770       -2.3288      -12.5127        9.8921
                                RZ     5965.5273     1451.8517     -623.6486      -15.2203       -3.9842       14.9558

 2210-WT2J    2210     PIV      AX     6488.8271     -988.7444    -2338.7275        7.1352       17.4004       -6.8997
                                AY    24403.0586    -9242.6279      807.7921       44.9259      -25.3966      -35.0142
                                AZ    -4940.4463      812.6017     -899.0489       -5.5126       12.0987        4.1069
                                RX   -22321.8320     3910.2341      230.0134      -47.3565       14.0658       27.7373
                                RY     5554.5068     -900.3252     1171.7544        3.4301      -15.1250       -4.5680
                                RZ    -5758.3809      838.3805      341.8110      -13.2302        0.9567        7.0847
              WT2J              AX     6488.8271     -988.7444    -2338.7275        7.1352        7.7576      -10.9764
                                AY    24403.0586    -9242.6279      807.7921       44.9259      -22.0660      -73.1224
                                AZ    -4940.4463      812.6017     -899.0489       -5.5126        8.3918        7.4573
                                RX   -22321.8320     3910.2341      230.0134      -47.3565       15.0142       43.8596
                                RY     5554.5068     -900.3252     1171.7544        3.4301      -10.2937       -8.2801
                                RZ    -5758.3809      838.3805      341.8110      -13.2302        2.3660       10.5415

 SQ02-Q109    SQ02     Q02      AX     9851.2393      -78.9226     -106.9300     -273.4754      535.7414     -230.0305
                                AY    31970.0508      119.9084     -347.5133     -766.9594     1416.0453     -531.8935
                                AZ    -9053.2422      -19.4795      181.6718      176.4893     -435.9785       93.9415
                                RX   -32134.4746     -129.3708      226.8940      743.2840    -1482.3812      501.8228
                                RY     8362.1895      118.3074     -105.6835     -322.4807      519.8258     -276.0597
                                RZ    -8382.7852      -37.7863       70.7339      192.4444     -375.3326      110.3465
              Q109              AX     9840.4795      242.4243     -118.7401     -273.4754    -1201.7072     1028.7797
                                AY    32186.4785      135.8858     -109.9804     -766.9594    -2106.2278     1437.4825
                                AZ    -8815.4160      -19.4795      -35.0255      176.4893      693.0602     -206.0062
                                RX   -32076.2695     -125.0150      292.3806      743.2840     2628.5510    -1452.5570
                                RY     8370.1074       30.6993     -107.0051     -322.4807    -1112.0583      787.6217
                                RZ    -8387.3574      -37.0399       65.7162      192.4444      675.2050     -389.5417

 SRX4-3975    SRX4     RX4      AX       86.5595       -5.4861        1.0087        2.9425       -8.6684       52.4671
                                AY    11520.5869        2.6532      -52.8885        9.7183     -212.9529       -9.3688
                                AZ    -1022.2363       -2.2779       -2.8594        0.2681       17.8515       20.3003
                                RX   -10428.7197       -2.5385       47.1616       -3.6581      232.9833        9.3023
                                RY    -1552.1964       -2.5679        3.5041        2.5721       17.9789       25.2205
                                RZ    -2680.0930       -0.3070       12.4526       -0.9283       60.3197        0.4820
              3975              AX       80.5762      -23.5277        3.9592        2.9425        0.3154        0.0000
                                AY    11512.3857        2.5277      -70.2876        9.7183     -435.6986        0.0000
                                AZ    -1005.8978       -8.9479      -10.5124        0.2681       -6.3293        0.0000
                                RX   -10424.8359       -2.5740       54.8188       -3.6581      417.0497        0.0000
                                RY    -1552.5416      -11.5654        3.7317        2.5721       31.0612        0.0000
                                RZ    -2678.8442       -0.0416       14.8871       -0.9283      109.6300        0.0000

 SSW5-1330    SSW5     SW5      AX     -269.7093       -1.5201        1.8895        1.8808        1.8392       -3.8570
                                AY      792.5778        1.4278       -6.7195       -1.1147       -5.6821        3.3299
                                AZ     -150.6782       -0.3615        0.9748        0.4431        1.6423       -0.9078
                                RX     -159.2203       -0.8061        1.1616        1.2491        1.0439       -3.4822
                                RY       92.7242        0.3690       -0.6982       -0.4266       -0.6913        0.9429
                                RZ      -26.6217       -0.2728        0.1447        0.4518        0.1521       -1.1853
              1330              AX     -269.8092       -0.9910        1.9846        1.8808        3.4609       -4.9081
                                AY      792.9547        1.4278       -6.3233       -1.1147      -11.1419        4.5253
                                AZ     -150.2949       -0.2236        0.6102        0.4431        2.3058       -1.1528
                                RX     -159.2286       -0.8179        1.2183        1.2491        2.0407       -4.1621
                                RY       92.6896        0.3199       -0.6653       -0.4266       -1.2621        1.2308
                                RZ      -26.5899       -0.2277        0.1953        0.4518        0.2945       -1.3945

